<?xml version="1.0" encoding="iso-8859-1"?>
<!-- Generator: Adobe Illustrator 18.1.1, SVG Export Plug-In . SVG Version: 6.00 Build 0)  -->
<svg version="1.1" id="Capa_1" xmlns="http://www.w3.org/2000/svg" xmlns:xlink="http://www.w3.org/1999/xlink" x="0px" y="0px"
	 viewBox="0 0 492 492" style="enable-background:new 0 0 492 492;" xml:space="preserve" width="30px" height="30px">
<g>
	<g>
		<path style="fill:#010002;" d="M474,410H307v41h67h57h44c4,0,7.5-1,10.5-3s4.833-4,5.5-6l1-3v-10c0-1.333-0.167-3.167-0.5-5.5
			s-2-5.167-5-8.5S479.333,410,474,410z"/>
		<path style="fill:#010002;" d="M451,402c11.333,0,21-4,29-12s12-17.833,12-29.5s-4-21.5-12-29.5s-17.667-12-29-12s-21,4-29,12
			s-12,17.833-12,29.5s4,21.5,12,29.5S439.667,402,451,402z"/>
		<path style="fill:#010002;" d="M364,400c10.667,0,19.833-3.5,27.5-10.5S403,373.667,403,363s-3.667-18.833-11-24.5
			s-16.667-8.5-28-8.5l-57,7v63H364z"/>
		<path style="fill:#010002;" d="M180,133c12.667,0,23.333-4.5,32-13.5s13-19.833,13-32.5s-4.333-23.5-13-32.5S192.667,41,180,41
			s-23.5,4.5-32.5,13.5S134,74.333,134,87s4.5,23.5,13.5,32.5S167.333,133,180,133z"/>
		<path style="fill:#010002;" d="M133,281v-1l-21-48v96h62l13-14l-36-14C142.333,296.667,136.333,290.333,133,281z"/>
		<path style="fill:#010002;" d="M146,276c2,5.335,5.667,8.668,11,10l70,26c4.667,2,9.334,2.167,14,0.5
			c4.667-1.668,7.833-4.835,9.5-9.5c1.667-4.667,1.667-9.334,0-14c-1.667-4.667-4.833-8-9.5-10l-65-24l-20-48l13-5l17,41l50,18v-50
			l26,16l13,65c1.333,4.667,4.333,8.167,9,10.5c4.667,2.335,9.333,2.668,14,1c4.667-1.667,8-4.667,10-9s2.333-8.833,1-13.5l-15-64
			c-0.667-3.333-2.667-6.333-6-9c-1.333-2-6-7.333-14-16s-15.5-16.833-22.5-24.5S240.667,155.667,240,155
			c-7.333-7.333-17.333-11-30-11h-61c-16,0-26.833,6.167-32.5,18.5S110,186.333,114,197L146,276z"/>
		<path style="fill:#010002;" d="M297,338H20c-5.333,0-10,1.667-14,5s-6,7.667-6,13v9v86h24h273V338z"/>
	</g>
</g>
<g>
</g>
<g>
</g>
<g>
</g>
<g>
</g>
<g>
</g>
<g>
</g>
<g>
</g>
<g>
</g>
<g>
</g>
<g>
</g>
<g>
</g>
<g>
</g>
<g>
</g>
<g>
</g>
<g>
</g>
</svg>
